<?xml version="1.0" encoding="utf-8"?>
<!-- Generator: Adobe Illustrator 17.1.0, SVG Export Plug-In . SVG Version: 6.00 Build 0)  -->
<!DOCTYPE svg PUBLIC "-//W3C//DTD SVG 1.1//EN" "http://www.w3.org/Graphics/SVG/1.1/DTD/svg11.dtd">
<svg version="1.1" id="Layer_1" xmlns="http://www.w3.org/2000/svg" xmlns:xlink="http://www.w3.org/1999/xlink" x="0px" y="0px"
	 width="324.4px" height="612px" viewBox="1012.6 146.1 324.4 612" enable-background="new 1012.6 146.1 324.4 612"
	 xml:space="preserve">
<polygon points="1030.8,758.1 1012.6,739.5 1300.2,452 1012.6,164.5 1030.8,146.1 1337,452 "/>
</svg>
