<?xml version="1.0" encoding="utf-8"?>
<!-- Generator: Adobe Illustrator 17.1.0, SVG Export Plug-In . SVG Version: 6.00 Build 0)  -->
<!DOCTYPE svg PUBLIC "-//W3C//DTD SVG 1.1//EN" "http://www.w3.org/Graphics/SVG/1.1/DTD/svg11.dtd">
<svg version="1.1" id="Layer_1" xmlns="http://www.w3.org/2000/svg" xmlns:xlink="http://www.w3.org/1999/xlink" x="0px" y="0px"
	 width="792px" height="419.9px" viewBox="236.1 413.3 792 419.9" enable-background="new 236.1 413.3 792 419.9"
	 xml:space="preserve">
<polygon points="1004.3,833.2 632.1,461 259.9,833.2 236.1,809.5 632.1,413.3 1028.1,809.5 "/>
</svg>
