<?xml version="1.0" encoding="utf-8"?>
<!-- Generator: Adobe Illustrator 17.1.0, SVG Export Plug-In . SVG Version: 6.00 Build 0)  -->
<!DOCTYPE svg PUBLIC "-//W3C//DTD SVG 1.1//EN" "http://www.w3.org/Graphics/SVG/1.1/DTD/svg11.dtd">
<svg version="1.1" id="Layer_1" xmlns="http://www.w3.org/2000/svg" xmlns:xlink="http://www.w3.org/1999/xlink" x="0px" y="0px"
	 width="612px" height="612px" viewBox="270 0 612 612" enable-background="new 270 0 612 612" xml:space="preserve">
<g>
	<polygon points="630.6,146.1 640.2,155.7 489.9,306 640.2,456.3 630.6,466 470.7,306 	"/>
	<path d="M576,0c168.7,0,306,137.3,306,306S744.7,612,576,612S270,474.7,270,306S407.3,0,576,0z M576,598.4
		c161.2,0,292.4-131.2,292.4-292.4S737.2,13.6,576,13.6S283.6,144.8,283.6,306S414.8,598.4,576,598.4z"/>
</g>
</svg>
