<?xml version="1.0" encoding="utf-8"?>
<!-- Generator: Adobe Illustrator 17.1.0, SVG Export Plug-In . SVG Version: 6.00 Build 0)  -->
<!DOCTYPE svg PUBLIC "-//W3C//DTD SVG 1.1//EN" "http://www.w3.org/Graphics/SVG/1.1/DTD/svg11.dtd">
<svg version="1.1" id="Layer_1" xmlns="http://www.w3.org/2000/svg" xmlns:xlink="http://www.w3.org/1999/xlink" x="0px" y="0px"
	 width="612px" height="612px" viewBox="270 0 612 612" enable-background="new 270 0 612 612" xml:space="preserve">
<g>
	<polygon points="521.4,466 511.8,456.3 662.1,306 511.8,155.7 521.4,146.1 681.4,306 	"/>
	<path d="M576,612c-168.7,0-306-137.3-306-306S407.3,0,576,0s306,137.3,306,306S744.7,612,576,612z M576,13.6
		c-161.2,0-292.4,131.2-292.4,292.4S414.8,598.4,576,598.4S868.4,467.2,868.4,306S737.2,13.6,576,13.6z"/>
</g>
</svg>
