<?xml version="1.0" encoding="utf-8"?>
<!-- Generator: Adobe Illustrator 17.1.0, SVG Export Plug-In . SVG Version: 6.00 Build 0)  -->
<!DOCTYPE svg PUBLIC "-//W3C//DTD SVG 1.1//EN" "http://www.w3.org/Graphics/SVG/1.1/DTD/svg11.dtd">
<svg version="1.1" id="Layer_1" xmlns="http://www.w3.org/2000/svg" xmlns:xlink="http://www.w3.org/1999/xlink" x="0px" y="0px"
	 width="611.8px" height="612px" viewBox="416.2 146.1 611.8 612" enable-background="new 416.2 146.1 611.8 612"
	 xml:space="preserve">
<g>
	<polygon points="434.6,758.1 416.2,739.5 703.7,452 416.2,164.5 434.6,146.1 740.5,452 	"/>
	<polygon points="1009.6,758.1 703.7,452 1009.6,146.1 1028,164.5 740.5,452 1028,739.5 	"/>
</g>
</svg>
