{
  "assets": "assets",
  "uploads": "uploads",
  "craft": "craft",
  "config": "_config",
  "plugins": "_plugins",
  "templates": "_templates",
  "local": {
    "root": ".",
    "public": "<%= rsync.local.root %>/public_html",
    "assets": "<%= rsync.local.public %>/<%= rsync.assets %>",
    "uploads": "<%= rsync.local.public %>/<%= rsync.uploads %>",
    "craft": "<%= rsync.local.root %>/<%= rsync.craft %>",
    "config": "<%= rsync.local.root %>/<%= rsync.config %>",
    "plugins": "<%= rsync.local.root %>/<%= rsync.plugins %>",
    "templates": "<%= rsync.local.root %>/<%= rsync.templates %>"
  },
  "dev": {
    "ssh": "transomdev@transomdesign.com",
    "root": "<%= rsync.dev.ssh %>:/var/www/vhosts/transomdesign.com/subdomains/your-project-directory",
    "public": "<%= rsync.dev.root %>/httpdocs",
    "assets": "<%= rsync.dev.public %>/<%= rsync.assets %>",
    "uploads": "<%= rsync.dev.public %>/<%= rsync.uploads %>",
    "craft": "<%= rsync.dev.root %>/<%= rsync.craft %>",
    "config": "<%= rsync.dev.root %>/<%= rsync.config %>",
    "plugins": "<%= rsync.dev.root %>/<%= rsync.plugins %>",
    "templates": "<%= rsync.dev.root %>/<%= rsync.templates %>"
  },
  "prod": {
    "ssh": "domainuser@transomdesign.com",
    "root": "<%= rsync.prod.ssh %>:/var/www/vhosts/domain.com",
    "public": "<%= rsync.prod.root %>/httpdocs",
    "assets": "<%= rsync.prod.public %>/<%= rsync.assets %>",
    "uploads": "<%= rsync.prod.public %>/<%= rsync.uploads %>",
    "craft": "<%= rsync.prod.root %>/<%= rsync.craft %>",
    "config": "<%= rsync.prod.root %>/<%= rsync.config %>",
    "plugins": "<%= rsync.prod.root %>/<%= rsync.plugins %>",
    "templates": "<%= rsync.prod.root %>/<%= rsync.templates %>"
  }
}
